lab 6 quartus/simulation/qsim/lab6.msim.vcd
$comment
	File created using the following command:
		vcd file lab6.msim.vcd -direction
$end
$date
	Sat Nov 28 16:31:53 2020
$end
$version
	ModelSim Version 10.1d
$end
$timescale
	1ps
$end
$scope module lab6problem3_vlg_vec_tst $end
$var reg 8 ! A [7:0] $end
$var reg 8 " B [7:0] $end
$var reg 1 # Clock $end
$var reg 1 $ data_in $end
$var reg 1 % Enable_Decoder $end
$var reg 1 & FSM_reset $end
$var reg 1 ' Reset_A $end
$var reg 1 ( Reset_B $end
$var wire 1 ) Result [0] $end
$var wire 1 * Result [1] $end
$var wire 1 + Result [2] $end
$var wire 1 , Result [3] $end
$var wire 1 - Result [4] $end
$var wire 1 . Result [5] $end
$var wire 1 / Result [6] $end
$var wire 1 0 student_id [0] $end
$var wire 1 1 student_id [1] $end
$var wire 1 2 student_id [2] $end
$var wire 1 3 student_id [3] $end
$var wire 1 4 student_id [4] $end
$var wire 1 5 student_id [5] $end
$var wire 1 6 student_id [6] $end
$var wire 1 7 sampler $end
$scope module i1 $end
$var wire 1 8 gnd $end
$var wire 1 9 vcc $end
$var wire 1 : unknown $end
$var tri1 1 ; devclrn $end
$var tri1 1 < devpor $end
$var tri1 1 = devoe $end
$var wire 1 > inst1|WideOr13~0_combout $end
$var wire 1 ? Clock~combout $end
$var wire 1 @ Clock~clkctrl_outclk $end
$var wire 1 A Enable_Decoder~combout $end
$var wire 1 B inst1|yfsm.s0~0_combout $end
$var wire 1 C FSM_reset~combout $end
$var wire 1 D FSM_reset~clkctrl_outclk $end
$var wire 1 E data_in~combout $end
$var wire 1 F inst1|yfsm.s0~regout $end
$var wire 1 G inst1|yfsm.s1~0_combout $end
$var wire 1 H inst1|yfsm.s1~regout $end
$var wire 1 I inst1|yfsm.s2~regout $end
$var wire 1 J inst1|yfsm.s3~feeder_combout $end
$var wire 1 K inst1|yfsm.s3~regout $end
$var wire 1 L inst1|yfsm.s4~regout $end
$var wire 1 M inst1|yfsm.s5~regout $end
$var wire 1 N inst1|yfsm.s6~regout $end
$var wire 1 O inst1|yfsm.s7~regout $end
$var wire 1 P inst1|yfsm.s8~regout $end
$var wire 1 Q inst1|WideOr14~combout $end
$var wire 1 R inst1|WideOr12~0_combout $end
$var wire 1 S inst9|Selector0~0_combout $end
$var wire 1 T inst9|Selector0~1_combout $end
$var wire 1 U inst1|WideOr9~combout $end
$var wire 1 V inst1|WideOr11~0_combout $end
$var wire 1 W inst1|WideOr10~combout $end
$var wire 1 X inst25|Mux1~0_combout $end
$var wire 1 Y inst25|Mux3~0_combout $end
$var wire 1 Z inst25|Mux5~2_combout $end
$var wire 1 [ inst25|Mux6~0_combout $end
$var wire 1 \ inst9|Result [3] $end
$var wire 1 ] inst9|Result [2] $end
$var wire 1 ^ inst9|Result [1] $end
$var wire 1 _ inst9|Result [0] $end
$upscope $end
$upscope $end
$enddefinitions $end
#0
$dumpvars
b1110111 !
b1010110 "
0#
1$
1%
0&
1'
1(
1/
0.
1-
0,
1+
0*
0)
16
15
04
13
12
01
10
x7
08
19
x:
1;
1<
1=
0>
0?
0@
1A
1B
0C
0D
1E
0F
1G
0H
0I
0J
0K
0L
0M
0N
0O
0P
0Q
0R
0S
0T
0U
0V
0W
0X
1Y
1Z
0[
z_
z^
z]
0\
$end
#10000
1#
1?
1@
07
1H
1F
1W
1V
1Q
0G
14
#20000
0#
0?
0@
17
#30000
1#
1?
1@
07
1I
0H
1J
1>
0Q
#40000
0#
0?
0@
17
#50000
1#
1?
1@
07
1K
0I
1Q
0W
0V
0J
04
#60000
0#
0?
0@
17
#70000
1#
1?
1@
07
1L
0K
0Y
1X
1R
0Q
0>
03
11
#80000
0#
0?
0@
17
#90000
1#
1?
1@
07
1M
0L
1W
1Q
1Y
0X
1[
0Z
0Y
1X
13
01
05
03
11
06
#100000
0#
0?
0@
17
#110000
1#
1?
1@
07
1N
0M
1V
1U
1>
0W
0Q
1Z
1Y
14
15
13
#120000
0#
0?
0@
17
#130000
1#
1?
1@
07
1O
0N
1W
1Q
0V
0U
0Z
0Y
1S
04
05
03
#140000
0#
0?
0@
17
#150000
1#
1?
1@
07
1P
0O
1V
1U
0B
0W
0R
0Q
0>
1Z
1Y
1T
14
15
13
#160000
0#
0?
0@
17
#170000
1#
1?
1@
07
1\
0P
0F
0V
0U
0S
1B
1G
1.
1,
1*
0-
0[
0X
0T
04
01
16
#180000
0#
0?
0@
17
#190000
1#
1?
1@
07
0\
1H
1F
1W
1V
1Q
0G
0.
0,
0*
1-
14
#200000
0#
0?
0@
17
#210000
1#
1?
1@
07
1I
0H
1J
1>
0Q
#220000
0#
0?
0@
17
#230000
1#
1?
1@
07
1K
0I
1Q
0W
0V
0J
04
#240000
0#
0?
0@
17
#250000
1#
1?
1@
07
1L
0K
0Y
1X
1R
0Q
0>
03
11
#260000
0#
0?
0@
17
#270000
1#
1?
1@
07
1M
0L
1W
1Q
1Y
0X
1[
0Z
0Y
1X
13
01
05
03
11
06
#280000
0#
0?
0@
17
#290000
1#
1?
1@
07
1N
0M
1V
1U
1>
0W
0Q
1Z
1Y
14
15
13
#300000
0#
0?
0@
17
#310000
1#
1?
1@
07
1O
0N
1W
1Q
0V
0U
0Z
0Y
1S
04
05
03
#320000
0#
0?
0@
17
#330000
1#
1?
1@
07
1P
0O
1V
1U
0B
0W
0R
0Q
0>
1Z
1Y
1T
14
15
13
#340000
0#
0?
0@
17
#350000
1#
1?
1@
07
1\
0P
0F
0V
0U
0S
1B
1G
1.
1,
1*
0-
0[
0X
0T
04
01
16
#360000
0#
0?
0@
17
#370000
1#
1?
1@
07
0\
1H
1F
1W
1V
1Q
0G
0.
0,
0*
1-
14
#380000
0#
0?
0@
17
#390000
1#
1?
1@
07
1I
0H
1J
1>
0Q
#400000
0#
0?
0@
17
#410000
1#
1?
1@
07
1K
0I
1Q
0W
0V
0J
04
#420000
0#
0?
0@
17
#430000
1#
1?
1@
07
1L
0K
0Y
1X
1R
0Q
0>
03
11
#440000
0#
0?
0@
17
#450000
1#
1?
1@
07
1M
0L
1W
1Q
1Y
0X
1[
0Z
0Y
1X
13
01
05
03
11
06
#460000
0#
0?
0@
17
#470000
1#
1?
1@
07
1N
0M
1V
1U
1>
0W
0Q
1Z
1Y
14
15
13
#480000
0#
0?
0@
17
#490000
1#
1?
1@
07
1O
0N
1W
1Q
0V
0U
0Z
0Y
1S
04
05
03
#500000
0#
0?
0@
17
#510000
1#
1?
1@
07
1P
0O
1V
1U
0B
0W
0R
0Q
0>
1Z
1Y
1T
14
15
13
#520000
0#
0?
0@
17
#530000
1#
1?
1@
07
1\
0P
0F
0V
0U
0S
1B
1G
1.
1,
1*
0-
0[
0X
0T
04
01
16
#540000
0#
0?
0@
17
#550000
1#
1?
1@
07
0\
1H
1F
1W
1V
1Q
0G
0.
0,
0*
1-
14
#560000
0#
0?
0@
17
#570000
1#
1?
1@
07
1I
0H
1J
1>
0Q
#580000
0#
0?
0@
17
#590000
1#
1?
1@
07
1K
0I
1Q
0W
0V
0J
04
#600000
0#
0?
0@
17
#610000
1#
1?
1@
07
1L
0K
0Y
1X
1R
0Q
0>
03
11
#620000
0#
0?
0@
17
#630000
1#
1?
1@
07
1M
0L
1W
1Q
1Y
0X
1[
0Z
0Y
1X
13
01
05
03
11
06
#640000
0#
0?
0@
17
#650000
1#
1?
1@
07
1N
0M
1V
1U
1>
0W
0Q
1Z
1Y
14
15
13
#660000
0#
0?
0@
17
#670000
1#
1?
1@
07
1O
0N
1W
1Q
0V
0U
0Z
0Y
1S
04
05
03
#680000
0#
0?
0@
17
#690000
1#
1?
1@
07
1P
0O
1V
1U
0B
0W
0R
0Q
0>
1Z
1Y
1T
14
15
13
#700000
0#
0?
0@
17
#710000
1#
1?
1@
07
1\
0P
0F
0V
0U
0S
1B
1G
1.
1,
1*
0-
0[
0X
0T
04
01
16
#720000
0#
0?
0@
17
#730000
1#
1?
1@
07
0\
1H
1F
1W
1V
1Q
0G
0.
0,
0*
1-
14
#740000
0#
0?
0@
17
#750000
1#
1?
1@
07
1I
0H
1J
1>
0Q
#760000
0#
0?
0@
17
#770000
1#
1?
1@
07
1K
0I
1Q
0W
0V
0J
04
#780000
0#
0?
0@
17
#790000
1#
1?
1@
07
1L
0K
0Y
1X
1R
0Q
0>
03
11
#800000
0#
0?
0@
17
#810000
1#
1?
1@
07
1M
0L
1W
1Q
1Y
0X
1[
0Z
0Y
1X
13
01
05
03
11
06
#820000
0#
0?
0@
17
#830000
1#
1?
1@
07
1N
0M
1V
1U
1>
0W
0Q
1Z
1Y
14
15
13
#840000
0#
0?
0@
17
#850000
1#
1?
1@
07
1O
0N
1W
1Q
0V
0U
0Z
0Y
1S
04
05
03
#860000
0#
0?
0@
17
#870000
1#
1?
1@
07
1P
0O
1V
1U
0B
0W
0R
0Q
0>
1Z
1Y
1T
14
15
13
#880000
0#
0?
0@
17
#890000
1#
1?
1@
07
1\
0P
0F
0V
0U
0S
1B
1G
1.
1,
1*
0-
0[
0X
0T
04
01
16
#900000
0#
0?
0@
17
#910000
1#
1?
1@
07
0\
1H
1F
1W
1V
1Q
0G
0.
0,
0*
1-
14
#920000
0#
0?
0@
17
#930000
1#
1?
1@
07
1I
0H
1J
1>
0Q
#940000
0#
0?
0@
17
#950000
1#
1?
1@
07
1K
0I
1Q
0W
0V
0J
04
#960000
0#
0?
0@
17
#970000
1#
1?
1@
07
1L
0K
0Y
1X
1R
0Q
0>
03
11
#980000
0#
0?
0@
17
#990000
1#
1?
1@
07
1M
0L
1W
1Q
1Y
0X
1[
0Z
0Y
1X
13
01
05
03
11
06
